…
ggplot(d, aes(estimate, term, xmin = low, xmax = high, height = 0)) +
  geom_point() +
  geom_vline(xintercept = 0) +
  geom_errorbarh()
augment(mod)
  #> # A tibble: 32 x 10
  #>    .rownames    mpg    wt  qsec .fitted  .resid .std.resid   .hat .sigma .cooksd
  #>    <chr>      <dbl> <dbl> <dbl>   <dbl>   <dbl>      <dbl>  <dbl>  <dbl>   <dbl>
  #>  1 Mazda RX4   21    2.62  16.5    21.8  0.815     -0.325  0.0693   2.64 2.63e-3
  #>  2 Mazda RX4…  21    2.88  17.0    21.0  0.0482    -0.0190 0.0444   2.64 5.59e-6
  #>  3 Datsun 710  22.8  2.32  18.6    25.3  2.53      -1.00   0.0607   2.60 2.17e-2
  #>  4 Hornet 4 …  21.4  3.22  19.4    21.6  0.181     -0.0716 0.0576   2.64 1.05e-4
  #>  5 Hornet Sp…  18.7  3.44  17.0    18.2 -0.504      0.198  0.0389   2.64 5.29e-4
  #>  6 Valiant     18.1  3.46  20.2    21.1  2.97      -1.20   0.0957   2.58 5.10e-2
  #>  7 Duster 360  14.3  3.57  15.8    16.4  2.14      -0.857  0.0729   2.61 1.93e-2
  #>  8 Merc 240D   24.4  3.19  20      22.2 -2.17       0.872  0.0791   2.61 2.18e-2
  #>  9 Merc 230    22.8  3.15  22.9    25.1  2.32      -1.07   0.295    2.59 1.59e-1
  #> 10 Merc 280    19.2  3.44  18.3    19.4  0.185     -0.0728 0.0358   2.64 6.55e-5
  #> # … with 22 more rowsaugment(mod, mtcars)
  #> # A tibble: 32 x 18
  #>    .rownames   mpg   cyl  disp    hp  drat    wt  qsec    vs    am  gear  carb
  #>    <chr>     <dbl> <dbl> <dbl> <dbl> <dbl> <dbl> <dbl> <dbl> <dbl> <dbl> <dbl>
  #>  1 Mazda RX4  21       6  160    110  3.9   2.62  16.5     0     1     4     4
  #>  2 Mazda RX…  21       6  160    110  3.9   2.88  17.0     0     1     4     4
  #>  3 Datsun 7…  22.8     4  108     93  3.85  2.32  18.6     1     1     4     1
  #>  4 Hornet 4…  21.4     6  258    110  3.08  3.22  19.4     1     0     3     1
  #>  5 Hornet S…  18.7     8  360    175  3.15  3.44  17.0     0     0     3     2
  #>  6 Valiant    18.1     6  225    105  2.76  3.46  20.2     1     0     3     1
  #>  7 Duster 3…  14.3     8  360    245  3.21  3.57  15.8     0     0     3     4
  #>  8 Merc 240D  24.4     4  147.    62  3.69  3.19  20       1     0     4     2
  #>  9 Merc 230   22.8     4  141.    95  3.92  3.15  22.9     1     0     4     2
  #> 10 Merc 280   19.2     6  168.   123  3.92  3.44  18.3     1     0     4     4
  #> # … with 22 more rows, and 6 more variables: .fitted <dbl>, .resid <dbl>,
  #> #   .std.resid <dbl>, .hat <dbl>, .sigma <dbl>, .cooksd <dbl>
…
