…
```

Bivariate summary of two variables

```{r}
gapminder %>%
  group_by(country) %>%
  summarize(cor = cor(lifeExp, year))
#> # A tibble: 142 x 2
#>    country       cor
#>    <fct>       <dbl>
#>  1 Afghanistan 0.974
#>  2 Albania     0.954
#>  3 Algeria     0.993
#>  4 Angola      0.942
#>  5 Argentina   0.998
#>  6 Australia   0.990
#>  7 Austria     0.996
#>  8 Bahrain     0.983
#>  9 Bangladesh  0.995
#> 10 Belgium     0.997
#> # … with 132 more rows
```
…
```

Dikkat: `.$fit` ile doğrudan kolona erişebiliyorsun.


Şimdi bu nested datayı temizleyelim. Tek bir satırda flatten edelim, önemli değişkenleri:
```{r}
models %>%
  mutate(coefs = map(fit, coef),
         intercept = map_dbl(coefs, 1),
         slope = map_dbl(coefs, 2)) %>%
  select(country, continent, intercept, slope)
#> # A tibble: 142 x 4
#> # Groups:   country, continent [710]
#>    country     continent intercept slope
#>    <fct>       <fct>         <dbl> <dbl>
#>  1 Afghanistan Asia          -508. 0.275
#>  2 Albania     Europe        -594. 0.335
#>  3 Algeria     Africa       -1068. 0.569
#>  4 Angola      Africa        -377. 0.209
#>  5 Argentina   Americas      -390. 0.232
#>  6 Australia   Oceania       -376. 0.228
#>  7 Austria     Europe        -406. 0.242
#>  8 Bahrain     Asia          -860. 0.468
#>  9 Bangladesh  Asia          -936. 0.498
#> 10 Belgium     Europe        -340. 0.209
#> # … with 132 more rows
…
#>  $ private          : logi FALSE
#>   [list output truncated]
## a highly selective list of tibble-worthy info for one repo
one_repo[c("name", "fork", "open_issues")]
#> $name
#> [1] "after"
#>
#> $fork
#> [1] FALSE
#>
#> $open_issues
#> [1] 0
## make a data frame of that info for all a user's repos
map_df(one_user, `[`, c("name", "fork", "open_issues"))
#> # A tibble: 30 x 3
#>    name        fork  open_issues
#>    <chr>       <lgl>       <int>
#>  1 after       FALSE           0
#>  2 argufy      FALSE           6
#>  3 ask         FALSE           4
#>  4 baseimports FALSE           0
#>  5 citest      TRUE            0
#>  6 clisymbols  FALSE           0
#>  7 cmaker      TRUE            0
#>  8 cmark       TRUE            0
#>  9 conditions  TRUE            0
#> 10 crayon      FALSE           7
#> # … with 20 more rows
…
