…
billboard
  ##> # A tibble: 317 x 79
  ##>    artist track date.entered   wk1   wk2   wk3   wk4   wk5   wk6   wk7   wk8
  ##>    <chr>  <chr> <date>       <dbl> <dbl> <dbl> <dbl> <dbl> <dbl> <dbl> <dbl>
  ##>  1 2 Pac  Baby… 2000-02-26      87    82    72    77    87    94    99    NA
  ##>  2 2Ge+h… The … 2000-09-02      91    87    92    NA    NA    NA    NA    NA
billboard %>%
 pivot_longer(
   cols = starts_with("wk"),
   names_to = "week",
   names_prefix = "wk",
   values_to = "rank",
   values_drop_na = TRUE
 )
  ##> # A tibble: 5,307 x 5
  ##>    artist  track                   date.entered week   rank
  ##>    <chr>   <chr>                   <date>       <chr> <dbl>
  ##>  1 2 Pac   Baby Don't Cry (Keep... 2000-02-26   1        87
  ##>  2 2 Pac   Baby Don't Cry (Keep... 2000-02-26   2        82
  ##>  3 2 Pac   Baby Don't Cry (Keep... 2000-02-26   3        72
  ##>  4 2 Pac   Baby Don't Cry (Keep... 2000-02-26   4        77
  ##>  5 2 Pac   Baby Don't Cry (Keep... 2000-02-26   5        87
  ##>  6 2 Pac   Baby Don't Cry (Keep... 2000-02-26   6        94
  ##>  7 2 Pac   Baby Don't Cry (Keep... 2000-02-26   7        99
  ##>  8 2Ge+her The Hardest Part Of ... 2000-09-02   1        91
  ##>  9 2Ge+her The Hardest Part Of ... 2000-09-02   2        87
  ##> 10 2Ge+her The Hardest Part Of ... 2000-09-02   3        92
  ##> # … with 5,297 more rows

# Multiple variables stored in colum names
who %>% pivot_longer(
  cols = new_sp_m014:newrel_f65,
  names_to = c("diagnosis", "gender", "age"),
  names_pattern = "new_?(.*)_(.)(.*)",
  values_to = "count"
)
  ##> # A tibble: 405,440 x 8
  ##>    country     iso2  iso3   year diagnosis gender age   count
  ##>    <chr>       <chr> <chr> <int> <chr>     <chr>  <chr> <int>
  ##>  1 Afghanistan AF    AFG    1980 sp        m      014      NA
  ##>  2 Afghanistan AF    AFG    1980 sp        m      1524     NA
  ##>  3 Afghanistan AF    AFG    1980 sp        m      2534     NA
  ##>  4 Afghanistan AF    AFG    1980 sp        m      3544     NA
  ##>  5 Afghanistan AF    AFG    1980 sp        m      4554     NA
  ##>  6 Afghanistan AF    AFG    1980 sp        m      5564     NA
  ##>  7 Afghanistan AF    AFG    1980 sp        m      65       NA
  ##>  8 Afghanistan AF    AFG    1980 sp        f      014      NA
  ##>  9 Afghanistan AF    AFG    1980 sp        f      1524     NA
  ##> 10 Afghanistan AF    AFG    1980 sp        f      2534     NA
  ##> # … with 405,430 more rows
…
  ##> 2   8  8  8  8  6.95 8.14  6.77  5.76
  ##> 3  13 13 13  8  7.58 8.74 12.74  7.71
  ##> 4   9  9  9  8  8.81 8.77  7.11  8.84
  ##> 5  11 11 11  8  8.33 9.26  7.81  8.47
  ##> 6  14 14 14  8  9.96 8.10  8.84  7.04
  ##> 7   6  6  6  8  7.24 6.13  6.08  5.25
  ##> 8   4  4  4 19  4.26 3.10  5.39 12.50
  ##> 9  12 12 12  8 10.84 9.13  8.15  5.56
  ##> 10  7  7  7  8  4.82 7.26  6.42  7.91
  ##> 11  5  5  5  8  5.68 4.74  5.73  6.89anscombe %>%
 pivot_longer(everything(),
   names_to = c(".value", "set"),
   names_pattern = "(.)(.)"
 )
  ##> # A tibble: 44 x 3
  ##>    set       x     y
  ##>    <chr> <dbl> <dbl>
  ##>  1 1        10  8.04
  ##>  2 2        10  9.14
  ##>  3 3        10  7.46
  ##>  4 4         8  6.58
  ##>  5 1         8  6.95
  ##>  6 2         8  8.14
  ##>  7 3         8  6.77
  ##>  8 4         8  5.76
  ##>  9 1        13  7.58
  ##> 10 2        13  8.74
  ##> # … with 34 more rows
``` 
…
